{
  "project_info": {
    "project_number": "531384994988",
    "firebase_url": "https://muklavaapp.firebaseio.com",
    "project_id": "muklavaapp",
    "storage_bucket": "muklavaapp.appspot.com"
  },
  "client": [
    {
      "client_info": {
        "mobilesdk_app_id": "1:531384994988:android:8d6c69dab251d6e5",
        "android_client_info": {
          "package_name": "com.example.unknown_joker.muklavaapp"
        }
      },
      "oauth_client": [
        {
          "client_id": "531384994988-u5bi518v4nb7oho5ko8rcvjn2m69l2ur.apps.googleusercontent.com",
          "client_type": 1,
          "android_info": {
            "package_name": "com.example.unknown_joker.muklavaapp",
            "certificate_hash": "b580db314e602bfd02948ab623f03fd37c59dbc8"
          }
        },
        {
          "client_id": "531384994988-24rufe550s2ff1vvqoi1tevgok1bmc4u.apps.googleusercontent.com",
          "client_type": 3
        },
        {
          "client_id": "531384994988-24rufe550s2ff1vvqoi1tevgok1bmc4u.apps.googleusercontent.com",
          "client_type": 3
        }
      ],
      "api_key": [
        {
          "current_key": "AIzaSyAiZ2aHqcMq5y8ExbQey2D12oO6r2YcK5I"
        }
      ],
      "services": {
        "analytics_service": {
          "status": 1
        },
        "appinvite_service": {
          "status": 2,
          "other_platform_oauth_client": [
            {
              "client_id": "531384994988-24rufe550s2ff1vvqoi1tevgok1bmc4u.apps.googleusercontent.com",
              "client_type": 3
            }
          ]
        },
        "ads_service": {
          "status": 2
        }
      }
    }
  ],
  "configuration_version": "1"
}